EESchema Schematic File Version 4
LIBS:klima-cache
EELAYER 26 0
EELAYER END
$Descr A4 11693 8268
encoding utf-8
Sheet 1 1
Title "Klima Sensor"
Date "2021-07-01"
Rev "0.1"
Comp "Benedikt Spranger"
Comment1 "SPDX-License-Identifier: CERN-OHL-S-2.0"
Comment2 "https://ohwr.org/cern_ohl_s_v2.txt"
Comment3 "To view a copy of this license, visit"
Comment4 "This work is licensed under the CERN-OHL-S v2"
$EndDescr
$Comp
L Connector_Generic:Conn_02x04_Odd_Even J101
U 1 1 60DCCEA7
P 5500 3300
F 0 "J101" H 5550 3617 50  0000 C CNN
F 1 "ESP8266-01S" H 5550 3526 50  0000 C CNN
F 2 "Connector_PinHeader_2.54mm:PinHeader_2x04_P2.54mm_Vertical" H 5500 3300 50  0001 C CNN
F 3 "~" H 5500 3300 50  0001 C CNN
	1    5500 3300
	-1   0    0    1   
$EndComp
Wire Wire Line
	5100 3100 5200 3100
Wire Wire Line
	5100 3200 5200 3200
Wire Wire Line
	5100 3300 5200 3300
Wire Wire Line
	5100 3400 5200 3400
Wire Wire Line
	5800 3100 5700 3100
Wire Wire Line
	5800 3200 5700 3200
Wire Wire Line
	5800 3300 5700 3300
Wire Wire Line
	5800 3400 5700 3400
Text Label 5100 3100 2    50   ~ 0
RX
Text Label 5100 3200 2    50   ~ 0
IO0
Text Label 5100 3300 2    50   ~ 0
IO2
$Comp
L power:GND #PWR0106
U 1 1 60DCE6FA
P 5100 3500
F 0 "#PWR0106" H 5100 3250 50  0001 C CNN
F 1 "GND" H 5105 3327 50  0000 C CNN
F 2 "" H 5100 3500 50  0001 C CNN
F 3 "" H 5100 3500 50  0001 C CNN
	1    5100 3500
	1    0    0    -1  
$EndComp
Wire Wire Line
	5100 3400 5100 3500
$Comp
L power:+3V3 #PWR0103
U 1 1 60DCF1ED
P 5800 3000
F 0 "#PWR0103" H 5800 2850 50  0001 C CNN
F 1 "+3V3" H 5815 3173 50  0000 C CNN
F 2 "" H 5800 3000 50  0001 C CNN
F 3 "" H 5800 3000 50  0001 C CNN
	1    5800 3000
	1    0    0    -1  
$EndComp
Wire Wire Line
	5800 3000 5800 3100
Text Label 5800 3200 0    50   ~ 0
~RST
Text Label 5800 3300 0    50   ~ 0
EN
Text Label 5800 3400 0    50   ~ 0
TX
$Comp
L Connector_Generic:Conn_02x04_Odd_Even J102
U 1 1 60DD2A77
P 7000 3300
F 0 "J102" H 7050 3617 50  0000 C CNN
F 1 "PROG" H 7050 3526 50  0000 C CNN
F 2 "Connector_PinSocket_2.54mm:PinSocket_2x04_P2.54mm_Vertical" H 7000 3300 50  0001 C CNN
F 3 "~" H 7000 3300 50  0001 C CNN
	1    7000 3300
	-1   0    0    1   
$EndComp
Wire Wire Line
	6600 3100 6700 3100
Wire Wire Line
	6600 3200 6700 3200
Wire Wire Line
	6600 3300 6700 3300
Wire Wire Line
	6600 3400 6700 3400
Wire Wire Line
	7300 3100 7200 3100
Wire Wire Line
	7300 3200 7200 3200
Wire Wire Line
	7300 3400 7200 3400
Text Label 6600 3100 2    50   ~ 0
RX
Text Label 6600 3200 2    50   ~ 0
IO0
Text Label 6600 3300 2    50   ~ 0
IO2
$Comp
L power:GND #PWR0107
U 1 1 60DD2A88
P 6600 3500
F 0 "#PWR0107" H 6600 3250 50  0001 C CNN
F 1 "GND" H 6605 3327 50  0000 C CNN
F 2 "" H 6600 3500 50  0001 C CNN
F 3 "" H 6600 3500 50  0001 C CNN
	1    6600 3500
	1    0    0    -1  
$EndComp
Wire Wire Line
	6600 3400 6600 3500
$Comp
L power:+3V3 #PWR0104
U 1 1 60DD2A8F
P 7300 3000
F 0 "#PWR0104" H 7300 2850 50  0001 C CNN
F 1 "+3V3" H 7315 3173 50  0000 C CNN
F 2 "" H 7300 3000 50  0001 C CNN
F 3 "" H 7300 3000 50  0001 C CNN
	1    7300 3000
	1    0    0    -1  
$EndComp
Wire Wire Line
	7300 3000 7300 3100
Text Label 7300 3200 0    50   ~ 0
~RST
Text Label 7300 3300 0    50   ~ 0
EN
Text Label 7300 3400 0    50   ~ 0
TX
$Comp
L Switch:SW_Push_45deg SW101
U 1 1 60DD32C7
P 8950 3000
F 0 "SW101" H 8950 3281 50  0000 C CNN
F 1 "BOOT" H 8950 3190 50  0000 C CNN
F 2 "Button_Switch_THT:SW_PUSH_6mm" H 8950 3000 50  0001 C CNN
F 3 "~" H 8950 3000 50  0001 C CNN
	1    8950 3000
	1    0    0    -1  
$EndComp
Text Label 8750 2900 2    50   ~ 0
IO0
Wire Wire Line
	8750 2900 8800 2900
$Comp
L power:GND #PWR0105
U 1 1 60DD4AAE
P 9050 3200
F 0 "#PWR0105" H 9050 2950 50  0001 C CNN
F 1 "GND" H 9055 3027 50  0000 C CNN
F 2 "" H 9050 3200 50  0001 C CNN
F 3 "" H 9050 3200 50  0001 C CNN
	1    9050 3200
	1    0    0    -1  
$EndComp
Wire Wire Line
	9050 3100 9050 3200
$Comp
L Connector_Generic:Conn_01x03 J104
U 1 1 60DD55DA
P 5400 4200
F 0 "J104" H 5480 4242 50  0000 L CNN
F 1 "serial" H 5480 4151 50  0000 L CNN
F 2 "Connector_PinHeader_2.54mm:PinHeader_1x03_P2.54mm_Vertical" H 5400 4200 50  0001 C CNN
F 3 "~" H 5400 4200 50  0001 C CNN
	1    5400 4200
	1    0    0    -1  
$EndComp
Text Label 5100 4100 2    50   ~ 0
RX
Text Label 5100 4200 2    50   ~ 0
TX
$Comp
L power:GND #PWR0114
U 1 1 60DD6247
P 5100 4400
F 0 "#PWR0114" H 5100 4150 50  0001 C CNN
F 1 "GND" H 5105 4227 50  0000 C CNN
F 2 "" H 5100 4400 50  0001 C CNN
F 3 "" H 5100 4400 50  0001 C CNN
	1    5100 4400
	1    0    0    -1  
$EndComp
Wire Wire Line
	5200 4100 5100 4100
Wire Wire Line
	5200 4200 5100 4200
Wire Wire Line
	5200 4300 5100 4300
Wire Wire Line
	5100 4300 5100 4400
$Comp
L WPMHD1100xx1S:WPMDH1100xx1S U101
U 1 1 60DD8B0F
P 4000 3200
F 0 "U101" H 4000 3565 50  0000 C CNN
F 1 "WPMDH1100xx1S" H 4000 3474 50  0000 C CNN
F 2 "WPMDH1100xx1S:WPMDH1100xx1S" H 4000 3200 50  0001 C CNN
F 3 "" H 4000 3200 50  0001 C CNN
	1    4000 3200
	1    0    0    -1  
$EndComp
$Comp
L Device:C C101
U 1 1 60DD9F33
P 3500 3350
F 0 "C101" H 3615 3396 50  0000 L CNN
F 1 "C" H 3615 3305 50  0000 L CNN
F 2 "Capacitor_THT:C_Disc_D8.0mm_W2.5mm_P5.00mm" H 3538 3200 50  0001 C CNN
F 3 "~" H 3500 3350 50  0001 C CNN
	1    3500 3350
	1    0    0    -1  
$EndComp
$Comp
L Device:C C102
U 1 1 60DDA8E8
P 4500 3350
F 0 "C102" H 4615 3396 50  0000 L CNN
F 1 "C" H 4615 3305 50  0000 L CNN
F 2 "Capacitor_THT:C_Disc_D8.0mm_W2.5mm_P5.00mm" H 4538 3200 50  0001 C CNN
F 3 "~" H 4500 3350 50  0001 C CNN
	1    4500 3350
	1    0    0    -1  
$EndComp
$Comp
L power:+3V3 #PWR0102
U 1 1 60DDB312
P 4500 3000
F 0 "#PWR0102" H 4500 2850 50  0001 C CNN
F 1 "+3V3" H 4515 3173 50  0000 C CNN
F 2 "" H 4500 3000 50  0001 C CNN
F 3 "" H 4500 3000 50  0001 C CNN
	1    4500 3000
	1    0    0    -1  
$EndComp
$Comp
L power:GND #PWR0108
U 1 1 60DDBAC7
P 3500 3600
F 0 "#PWR0108" H 3500 3350 50  0001 C CNN
F 1 "GND" H 3505 3427 50  0000 C CNN
F 2 "" H 3500 3600 50  0001 C CNN
F 3 "" H 3500 3600 50  0001 C CNN
	1    3500 3600
	1    0    0    -1  
$EndComp
$Comp
L power:GND #PWR0109
U 1 1 60DDC1D1
P 4000 3600
F 0 "#PWR0109" H 4000 3350 50  0001 C CNN
F 1 "GND" H 4005 3427 50  0000 C CNN
F 2 "" H 4000 3600 50  0001 C CNN
F 3 "" H 4000 3600 50  0001 C CNN
	1    4000 3600
	1    0    0    -1  
$EndComp
$Comp
L power:GND #PWR0110
U 1 1 60DDC5C6
P 4500 3600
F 0 "#PWR0110" H 4500 3350 50  0001 C CNN
F 1 "GND" H 4505 3427 50  0000 C CNN
F 2 "" H 4500 3600 50  0001 C CNN
F 3 "" H 4500 3600 50  0001 C CNN
	1    4500 3600
	1    0    0    -1  
$EndComp
Wire Wire Line
	3500 3200 3500 3100
Wire Wire Line
	3500 3100 3700 3100
Wire Wire Line
	4300 3100 4500 3100
Wire Wire Line
	4500 3100 4500 3000
Wire Wire Line
	4500 3100 4500 3200
Connection ~ 4500 3100
Wire Wire Line
	4500 3500 4500 3600
Wire Wire Line
	4000 3500 4000 3600
Wire Wire Line
	3500 3500 3500 3600
$Comp
L Connector_Generic:Conn_01x02 J103
U 1 1 60DDF210
P 4400 4200
F 0 "J103" H 4480 4192 50  0000 L CNN
F 1 "PWR" H 4480 4101 50  0000 L CNN
F 2 "TerminalBlock_WAGO:TerminalBlock_WAGO_236-102_1x02_P5.00mm_45Degree" H 4400 4200 50  0001 C CNN
F 3 "~" H 4400 4200 50  0001 C CNN
	1    4400 4200
	1    0    0    -1  
$EndComp
$Comp
L power:+12V #PWR0101
U 1 1 60DDFD77
P 3500 2500
F 0 "#PWR0101" H 3500 2350 50  0001 C CNN
F 1 "+12V" H 3515 2673 50  0000 C CNN
F 2 "" H 3500 2500 50  0001 C CNN
F 3 "" H 3500 2500 50  0001 C CNN
	1    3500 2500
	1    0    0    -1  
$EndComp
$Comp
L power:+12V #PWR0112
U 1 1 60DE0594
P 4100 4100
F 0 "#PWR0112" H 4100 3950 50  0001 C CNN
F 1 "+12V" H 4115 4273 50  0000 C CNN
F 2 "" H 4100 4100 50  0001 C CNN
F 3 "" H 4100 4100 50  0001 C CNN
	1    4100 4100
	1    0    0    -1  
$EndComp
$Comp
L power:GND #PWR0113
U 1 1 60DE1CBE
P 4100 4400
F 0 "#PWR0113" H 4100 4150 50  0001 C CNN
F 1 "GND" H 4105 4227 50  0000 C CNN
F 2 "" H 4100 4400 50  0001 C CNN
F 3 "" H 4100 4400 50  0001 C CNN
	1    4100 4400
	1    0    0    -1  
$EndComp
$Comp
L Diode:1N4004 D101
U 1 1 60DE2B98
P 3500 2750
F 0 "D101" V 3546 2670 50  0000 R CNN
F 1 "1N4004" V 3455 2670 50  0000 R CNN
F 2 "Diode_THT:D_DO-41_SOD81_P10.16mm_Horizontal" H 3500 2575 50  0001 C CNN
F 3 "http://www.vishay.com/docs/88503/1n4001.pdf" H 3500 2750 50  0001 C CNN
	1    3500 2750
	0    -1   -1   0   
$EndComp
Wire Wire Line
	3500 2500 3500 2600
Wire Wire Line
	3500 2900 3500 3100
Connection ~ 3500 3100
Wire Wire Line
	4200 4200 4100 4200
Wire Wire Line
	4100 4200 4100 4100
Wire Wire Line
	4200 4300 4100 4300
Wire Wire Line
	4100 4300 4100 4400
$Comp
L Connector_Generic:Conn_01x02 J105
U 1 1 60DEB543
P 4400 5000
F 0 "J105" H 4480 4992 50  0000 L CNN
F 1 "PWR" H 4480 4901 50  0000 L CNN
F 2 "TerminalBlock_WAGO:TerminalBlock_WAGO_236-102_1x02_P5.00mm_45Degree" H 4400 5000 50  0001 C CNN
F 3 "~" H 4400 5000 50  0001 C CNN
	1    4400 5000
	1    0    0    -1  
$EndComp
$Comp
L power:+12V #PWR0120
U 1 1 60DEB549
P 4100 4900
F 0 "#PWR0120" H 4100 4750 50  0001 C CNN
F 1 "+12V" H 4115 5073 50  0000 C CNN
F 2 "" H 4100 4900 50  0001 C CNN
F 3 "" H 4100 4900 50  0001 C CNN
	1    4100 4900
	1    0    0    -1  
$EndComp
$Comp
L power:GND #PWR0121
U 1 1 60DEB54F
P 4100 5200
F 0 "#PWR0121" H 4100 4950 50  0001 C CNN
F 1 "GND" H 4105 5027 50  0000 C CNN
F 2 "" H 4100 5200 50  0001 C CNN
F 3 "" H 4100 5200 50  0001 C CNN
	1    4100 5200
	1    0    0    -1  
$EndComp
Wire Wire Line
	4200 5000 4100 5000
Wire Wire Line
	4100 5000 4100 4900
Wire Wire Line
	4200 5100 4100 5100
Wire Wire Line
	4100 5100 4100 5200
$Comp
L power:+3V3 #PWR0111
U 1 1 60DEE822
P 6300 4100
F 0 "#PWR0111" H 6300 3950 50  0001 C CNN
F 1 "+3V3" H 6315 4273 50  0000 C CNN
F 2 "" H 6300 4100 50  0001 C CNN
F 3 "" H 6300 4100 50  0001 C CNN
	1    6300 4100
	1    0    0    -1  
$EndComp
$Comp
L power:GND #PWR0119
U 1 1 60DEF1BE
P 6300 4800
F 0 "#PWR0119" H 6300 4550 50  0001 C CNN
F 1 "GND" H 6305 4627 50  0000 C CNN
F 2 "" H 6300 4800 50  0001 C CNN
F 3 "" H 6300 4800 50  0001 C CNN
	1    6300 4800
	1    0    0    -1  
$EndComp
Wire Wire Line
	6700 4500 6600 4500
Text Label 6700 4500 0    50   ~ 0
IO2
$Comp
L Mechanical:MountingHole_Pad H101
U 1 1 60DF2D8C
P 7700 4500
F 0 "H101" H 7800 4503 50  0000 L CNN
F 1 "~" H 7800 4458 50  0000 L CNN
F 2 "MountingHole:MountingHole_3.2mm_M3_DIN965_Pad" H 7700 4500 50  0001 C CNN
F 3 "~" H 7700 4500 50  0001 C CNN
	1    7700 4500
	1    0    0    -1  
$EndComp
$Comp
L power:GND #PWR0115
U 1 1 60DF3513
P 7700 4700
F 0 "#PWR0115" H 7700 4450 50  0001 C CNN
F 1 "GND" H 7705 4527 50  0000 C CNN
F 2 "" H 7700 4700 50  0001 C CNN
F 3 "" H 7700 4700 50  0001 C CNN
	1    7700 4700
	1    0    0    -1  
$EndComp
Wire Wire Line
	7700 4600 7700 4700
$Comp
L Mechanical:MountingHole_Pad H102
U 1 1 60DF4F2A
P 8200 4500
F 0 "H102" H 8300 4503 50  0000 L CNN
F 1 "~" H 8300 4458 50  0000 L CNN
F 2 "MountingHole:MountingHole_3.2mm_M3_DIN965_Pad" H 8200 4500 50  0001 C CNN
F 3 "~" H 8200 4500 50  0001 C CNN
	1    8200 4500
	1    0    0    -1  
$EndComp
$Comp
L power:GND #PWR0116
U 1 1 60DF4F30
P 8200 4700
F 0 "#PWR0116" H 8200 4450 50  0001 C CNN
F 1 "GND" H 8205 4527 50  0000 C CNN
F 2 "" H 8200 4700 50  0001 C CNN
F 3 "" H 8200 4700 50  0001 C CNN
	1    8200 4700
	1    0    0    -1  
$EndComp
Wire Wire Line
	8200 4600 8200 4700
$Comp
L Mechanical:MountingHole_Pad H103
U 1 1 60DF60ED
P 8700 4500
F 0 "H103" H 8800 4503 50  0000 L CNN
F 1 "~" H 8800 4458 50  0000 L CNN
F 2 "MountingHole:MountingHole_3.2mm_M3_DIN965_Pad" H 8700 4500 50  0001 C CNN
F 3 "~" H 8700 4500 50  0001 C CNN
	1    8700 4500
	1    0    0    -1  
$EndComp
$Comp
L power:GND #PWR0117
U 1 1 60DF60F3
P 8700 4700
F 0 "#PWR0117" H 8700 4450 50  0001 C CNN
F 1 "GND" H 8705 4527 50  0000 C CNN
F 2 "" H 8700 4700 50  0001 C CNN
F 3 "" H 8700 4700 50  0001 C CNN
	1    8700 4700
	1    0    0    -1  
$EndComp
Wire Wire Line
	8700 4600 8700 4700
$Comp
L Mechanical:MountingHole_Pad H104
U 1 1 60DF712F
P 9200 4500
F 0 "H104" H 9300 4503 50  0000 L CNN
F 1 "~" H 9300 4458 50  0000 L CNN
F 2 "MountingHole:MountingHole_3.2mm_M3_DIN965_Pad" H 9200 4500 50  0001 C CNN
F 3 "~" H 9200 4500 50  0001 C CNN
	1    9200 4500
	1    0    0    -1  
$EndComp
$Comp
L power:GND #PWR0118
U 1 1 60DF7135
P 9200 4700
F 0 "#PWR0118" H 9200 4450 50  0001 C CNN
F 1 "GND" H 9205 4527 50  0000 C CNN
F 2 "" H 9200 4700 50  0001 C CNN
F 3 "" H 9200 4700 50  0001 C CNN
	1    9200 4700
	1    0    0    -1  
$EndComp
Wire Wire Line
	9200 4600 9200 4700
$Comp
L power:PWR_FLAG #FLG0101
U 1 1 60E32D00
P 3400 3100
F 0 "#FLG0101" H 3400 3175 50  0001 C CNN
F 1 "PWR_FLAG" V 3400 3227 50  0000 L CNN
F 2 "" H 3400 3100 50  0001 C CNN
F 3 "~" H 3400 3100 50  0001 C CNN
	1    3400 3100
	0    -1   -1   0   
$EndComp
Wire Wire Line
	3500 3100 3400 3100
$Comp
L power:PWR_FLAG #FLG0102
U 1 1 60E3481B
P 4000 5000
F 0 "#FLG0102" H 4000 5075 50  0001 C CNN
F 1 "PWR_FLAG" V 4000 5127 50  0000 L CNN
F 2 "" H 4000 5000 50  0001 C CNN
F 3 "~" H 4000 5000 50  0001 C CNN
	1    4000 5000
	0    -1   -1   0   
$EndComp
Wire Wire Line
	4100 5000 4000 5000
Connection ~ 4100 5000
Wire Wire Line
	4000 5100 4100 5100
Connection ~ 4100 5100
$Comp
L power:PWR_FLAG #FLG0103
U 1 1 60E372AC
P 4000 5100
F 0 "#FLG0103" H 4000 5175 50  0001 C CNN
F 1 "PWR_FLAG" V 4000 5227 50  0000 L CNN
F 2 "" H 4000 5100 50  0001 C CNN
F 3 "~" H 4000 5100 50  0001 C CNN
	1    4000 5100
	0    -1   -1   0   
$EndComp
$Comp
L Device:R R101
U 1 1 60DE39B2
P 6600 4250
F 0 "R101" H 6670 4296 50  0000 L CNN
F 1 "10k" H 6670 4205 50  0000 L CNN
F 2 "Resistor_THT:R_Axial_DIN0207_L6.3mm_D2.5mm_P7.62mm_Horizontal" V 6530 4250 50  0001 C CNN
F 3 "~" H 6600 4250 50  0001 C CNN
	1    6600 4250
	1    0    0    -1  
$EndComp
$Comp
L power:+3V3 #PWR0122
U 1 1 60DE718E
P 6600 4000
F 0 "#PWR0122" H 6600 3850 50  0001 C CNN
F 1 "+3V3" H 6615 4173 50  0000 C CNN
F 2 "" H 6600 4000 50  0001 C CNN
F 3 "" H 6600 4000 50  0001 C CNN
	1    6600 4000
	1    0    0    -1  
$EndComp
Wire Wire Line
	6600 4000 6600 4100
Wire Wire Line
	6600 4400 6600 4500
Connection ~ 6600 4500
$Comp
L Device:R R3
U 1 1 615A24BD
P 8800 2550
F 0 "R3" H 8870 2596 50  0000 L CNN
F 1 "10k" H 8870 2505 50  0000 L CNN
F 2 "Resistor_THT:R_Axial_DIN0207_L6.3mm_D2.5mm_P7.62mm_Horizontal" V 8730 2550 50  0001 C CNN
F 3 "~" H 8800 2550 50  0001 C CNN
	1    8800 2550
	1    0    0    -1  
$EndComp
Connection ~ 8800 2900
Wire Wire Line
	8800 2900 8850 2900
$Comp
L Switch:SW_Push_45deg SW1
U 1 1 615A5381
P 8350 3000
F 0 "SW1" H 8350 3281 50  0000 C CNN
F 1 "RESET" H 8350 3190 50  0000 C CNN
F 2 "Button_Switch_THT:SW_PUSH_6mm" H 8350 3000 50  0001 C CNN
F 3 "~" H 8350 3000 50  0001 C CNN
	1    8350 3000
	1    0    0    -1  
$EndComp
Text Label 8150 2900 2    50   ~ 0
~RST
Wire Wire Line
	8150 2900 8200 2900
$Comp
L power:GND #PWR03
U 1 1 615A538A
P 8450 3200
F 0 "#PWR03" H 8450 2950 50  0001 C CNN
F 1 "GND" H 8455 3027 50  0000 C CNN
F 2 "" H 8450 3200 50  0001 C CNN
F 3 "" H 8450 3200 50  0001 C CNN
	1    8450 3200
	1    0    0    -1  
$EndComp
Wire Wire Line
	8450 3100 8450 3200
$Comp
L Device:R R2
U 1 1 615A5391
P 8200 2550
F 0 "R2" H 8270 2596 50  0000 L CNN
F 1 "10k" H 8270 2505 50  0000 L CNN
F 2 "Resistor_THT:R_Axial_DIN0207_L6.3mm_D2.5mm_P7.62mm_Horizontal" V 8130 2550 50  0001 C CNN
F 3 "~" H 8200 2550 50  0001 C CNN
	1    8200 2550
	1    0    0    -1  
$EndComp
Wire Wire Line
	8200 2700 8200 2900
Connection ~ 8200 2900
Wire Wire Line
	8200 2900 8250 2900
$Comp
L Device:R R1
U 1 1 615A6556
P 7650 2550
F 0 "R1" H 7720 2596 50  0000 L CNN
F 1 "10k" H 7720 2505 50  0000 L CNN
F 2 "Resistor_THT:R_Axial_DIN0207_L6.3mm_D2.5mm_P7.62mm_Horizontal" V 7580 2550 50  0001 C CNN
F 3 "~" H 7650 2550 50  0001 C CNN
	1    7650 2550
	1    0    0    -1  
$EndComp
Wire Wire Line
	7200 3300 7650 3300
Wire Wire Line
	7650 2700 7650 3300
$Comp
L power:+3V3 #PWR01
U 1 1 615A98AC
P 7650 2300
F 0 "#PWR01" H 7650 2150 50  0001 C CNN
F 1 "+3V3" H 7665 2473 50  0000 C CNN
F 2 "" H 7650 2300 50  0001 C CNN
F 3 "" H 7650 2300 50  0001 C CNN
	1    7650 2300
	1    0    0    -1  
$EndComp
Wire Wire Line
	7650 2300 7650 2400
$Comp
L power:+3V3 #PWR02
U 1 1 615AA986
P 8200 2300
F 0 "#PWR02" H 8200 2150 50  0001 C CNN
F 1 "+3V3" H 8215 2473 50  0000 C CNN
F 2 "" H 8200 2300 50  0001 C CNN
F 3 "" H 8200 2300 50  0001 C CNN
	1    8200 2300
	1    0    0    -1  
$EndComp
Wire Wire Line
	8200 2300 8200 2400
$Comp
L power:+3V3 #PWR04
U 1 1 615ABAD2
P 8800 2300
F 0 "#PWR04" H 8800 2150 50  0001 C CNN
F 1 "+3V3" H 8815 2473 50  0000 C CNN
F 2 "" H 8800 2300 50  0001 C CNN
F 3 "" H 8800 2300 50  0001 C CNN
	1    8800 2300
	1    0    0    -1  
$EndComp
Wire Wire Line
	8800 2300 8800 2400
$Comp
L Connector_Generic:Conn_01x04 J1
U 1 1 615CA6D4
P 6100 4450
F 0 "J1" H 6180 4492 50  0000 L CNN
F 1 "GPIO" H 6180 4401 50  0000 L CNN
F 2 "Connector_PinHeader_2.54mm:PinHeader_1x04_P2.54mm_Vertical" H 6100 4450 50  0001 C CNN
F 3 "~" H 6100 4450 50  0001 C CNN
	1    6100 4450
	-1   0    0    -1  
$EndComp
Wire Wire Line
	6300 4350 6300 4100
Wire Wire Line
	6300 4650 6300 4800
Wire Wire Line
	6300 4500 6300 4450
Wire Wire Line
	6300 4500 6600 4500
Wire Wire Line
	8800 2700 8800 2900
Text Label 6750 4600 0    50   ~ 0
IO0
Wire Wire Line
	6750 4600 6300 4600
Wire Wire Line
	6300 4600 6300 4550
$EndSCHEMATC
